true
false 0 false 56
false 1 false 58
false 2 false 60
false 3 false 62
false 4 false 49
false 5 false 51
false 6 false 53
false 7 false 55
false 8 false 40
false 9 false 42
false 10 false 37
false 11 false 46
true 0 false 1
true 1 false 3
true 2 false 5
true 3 false 7
true 4 false 8
true 5 false 10
true 6 false 12
true 7 false 14
true 8 false 17
true 9 false 19
true 10 false 21
true 11 false 23
