1 false false 10 37
2 true false 9 28
3 false false 10 19
3 true false 9 -1
4 false false 10 -1
4 true false 5 28
5 false false 11 37
6 false false 11 -1
6 true false 5 46
7 false false 6 39
7 true false 5 -1
8 false false 6 39
8 false false 10 -1
8 false false 11 -1
8 true false 5 -1
9 false false 9 35
10 false false 9 -1
10 true false 8 44
11 false false 5 37
11 true false 8 -1
12 true false 0 10
13 false false 1 51
14 true false 10 28
15 false false 5 19
15 true false 10 -1
16 false true 5 1
16 true false 0 -1
