2 false false 10 37
3 true false 9 28
4 false false 10 19
4 true false 9 -1
5 false false 10 -1
5 true false 5 28
6 false false 11 37
7 false false 11 -1
7 true false 5 46
8 false false 7 37
8 true false 5 -1
9 true false 6 19
10 false false 3 55
11 true false 8 26
12 false false 6 46
13 true false 6 28
14 false false 7 19
14 true false 6 -1
15 false false 7 33
15 true false 8 -1
16 true false 4 17
17 false false 7 24
18 true false 0 10
19 false false 9 35
20 true false 10 30
21 false false 5 42
22 true false 0 19
23 false false 7 10
23 true false 4 -1
24 false false 7 28
24 true false 0 -1
25 true false 10 37
26 false false 9 26
27 false false 7 -1
27 true false 10 19
28 false false 9 -1
28 true false 10 33
29 false false 5 -1
29 true false 10 51
30 false false 1 44
30 true false 10 -1
31 true false 11 30
32 false false 6 39
33 true false 11 37
34 false false 1 30
35 true false 7 21
36 false false 1 12
37 false false 1 -1
37 true false 1 21
38 false false 3 46
39 true false 2 12
40 false false 3 37
41 true false 1 30
42 false false 6 21
42 true false 1 -1
43 false true 6 3
43 true false 2 -1
44 true false 3 14
45 false false 3 30
46 true false 3 21
47 false false 3 12
48 false false 10 37
49 true false 9 28
50 false false 10 19
50 true false 9 -1
51 false false 10 -1
51 true false 5 28
52 false false 11 37
53 false false 11 -1
53 true false 5 46
54 false false 7 37
54 true false 5 -1
55 true false 6 19
56 false false 3 55
57 true false 8 26
58 false false 6 46
59 true false 6 28
60 false false 7 19
60 true false 6 -1
61 false false 7 33
61 true false 8 -1
62 true false 4 17
63 false false 7 24
64 true false 0 10
65 false false 9 35
66 true false 10 30
67 false false 5 42
68 true false 0 19
69 false false 7 10
69 true false 4 -1
70 false false 7 28
70 true false 0 -1
71 true false 10 37
72 false false 9 26
73 false false 7 -1
73 true false 10 19
74 false false 9 -1
74 true false 10 33
75 false false 5 -1
75 true false 10 51
76 false false 1 44
76 true false 10 -1
77 true false 11 30
78 false false 6 39
79 true false 11 37
80 false false 1 30
81 true false 7 21
82 false false 1 12
83 false false 1 -1
83 true false 1 21
84 false false 3 46
85 true false 2 12
86 false false 3 37
87 true false 1 30
88 false false 6 21
88 true false 1 -1
89 false true 6 3
89 true false 2 -1
90 true false 3 14
91 false false 3 30
92 true false 3 21
93 false false 3 12
94 false false 10 37
95 true false 9 28
96 false false 10 19
96 true false 9 -1
97 false false 10 -1
97 true false 5 28
98 false false 11 37
99 false false 11 -1
99 true false 5 46
100 false false 7 37
100 true false 5 -1
101 true false 6 19
102 false false 3 55
103 true false 8 26
104 false false 6 46
105 true false 6 28
106 false false 7 19
106 true false 6 -1
107 false false 7 33
107 true false 8 -1
108 true false 4 17
109 false false 7 24
110 true false 0 10
111 false false 9 35
112 true false 10 30
113 false false 5 42
114 true false 0 19
115 false false 7 10
115 true false 4 -1
116 false false 7 28
116 true false 0 -1
117 true false 10 37
118 false false 9 26
119 false false 7 -1
119 true false 10 19
120 false false 9 -1
120 true false 10 33
121 false false 5 -1
121 true false 10 51
122 false false 1 44
122 true false 10 -1
123 true false 11 30
124 false false 6 39
125 true false 11 37
126 false false 1 30
127 true false 7 21
128 false false 1 12
129 false false 1 -1
129 true false 1 21
130 false false 3 46
131 true false 2 12
132 false false 3 37
133 true false 1 30
134 false false 6 21
134 true false 1 -1
135 false true 6 3
135 true false 2 -1
136 true false 3 14
137 false false 3 30
138 true false 3 21
139 false false 3 12
140 false false 10 37
141 true false 9 28
142 false false 10 19
142 true false 9 -1
143 false false 10 -1
143 true false 5 28
144 false false 11 37
145 false false 11 -1
145 true false 5 46
146 false false 7 37
146 true false 5 -1
147 true false 6 19
148 false false 3 55
149 true false 8 26
150 false false 6 46
151 true false 6 28
152 false false 7 19
152 true false 6 -1
153 false false 7 33
153 true false 8 -1
154 true false 4 17
155 false false 7 24
156 true false 0 10
157 false false 9 35
158 true false 10 30
159 false false 5 42
160 true false 0 19
161 false false 7 10
161 true false 4 -1
162 false false 7 28
162 true false 0 -1
163 true false 10 37
164 false false 9 26
165 false false 7 -1
165 true false 10 19
166 false false 9 -1
166 true false 10 33
167 false false 5 -1
167 true false 10 51
168 false false 1 44
168 true false 10 -1
169 true false 11 30
170 false false 6 39
171 true false 11 37
172 false false 1 30
173 true false 7 21
174 false false 1 12
175 false false 1 -1
175 true false 1 21
176 false false 3 46
177 true false 2 12
178 false false 3 37
179 true false 1 30
180 false false 6 21
180 true false 1 -1
181 false true 6 3
181 true false 2 -1
182 true false 3 14
183 false false 3 30
184 true false 3 21
185 false false 3 12
186 false false 10 37
187 true false 9 28
188 false false 10 19
188 true false 9 -1
189 false false 10 -1
189 true false 5 28
190 false false 11 37
191 false false 11 -1
191 true false 5 46
192 false false 7 37
192 true false 5 -1
193 true false 6 19
194 false false 3 55
195 true false 8 26
196 false false 6 46
197 true false 6 28
198 false false 7 19
198 true false 6 -1
199 false false 7 33
199 true false 8 -1
200 true false 4 17
201 false false 7 24
202 true false 0 10
203 false false 9 35
204 true false 10 30
205 false false 5 42
206 true false 0 19
207 false false 7 10
207 true false 4 -1
208 false false 7 28
208 true false 0 -1
209 true false 10 37
210 false false 9 26
211 false false 7 -1
211 true false 10 19
212 false false 9 -1
212 true false 10 33
213 false false 5 -1
213 true false 10 51
214 false false 1 44
214 true false 10 -1
215 true false 11 30
216 false false 6 39
217 true false 11 37
218 false false 1 30
219 true false 7 21
220 false false 1 12
221 false false 1 -1
221 true false 1 21
222 false false 3 46
223 true false 2 12
224 false false 3 37
225 true false 1 30
226 false false 6 21
226 true false 1 -1
227 false true 6 3
227 true false 2 -1
228 true false 3 14
229 false false 3 30
230 true false 3 21
231 false false 3 12
